# Fdb version 3
["pdflatex"] 1554905981 "continuas.tex" "continuas.pdf" "continuas" 1554905984
  "/etc/texmf/web2c/texmf.cnf" 1541783931 475 c0e671620eb5563b2130f56340a5fde8 ""
  "/usr/share/texlive/texmf-dist/fonts/map/fontname/texfonts.map" 1511824771 3332 103109f5612ad95229751940c61aada0 ""
  "/usr/share/texlive/texmf-dist/fonts/tfm/public/amsfonts/cmextra/cmex7.tfm" 1480098698 1004 54797486969f23fa377b128694d548df ""
  "/usr/share/texlive/texmf-dist/fonts/tfm/public/amsfonts/cmextra/cmex8.tfm" 1480098698 988 bdf658c3bfc2d96d3c8b02cfc1c94c20 ""
  "/usr/share/texlive/texmf-dist/fonts/tfm/public/amsfonts/symbols/msam10.tfm" 1480098698 916 f87d7c45f9c908e672703b83b72241a3 ""
  "/usr/share/texlive/texmf-dist/fonts/tfm/public/amsfonts/symbols/msam7.tfm" 1480098698 928 2dc8d444221b7a635bb58038579b861a ""
  "/usr/share/texlive/texmf-dist/fonts/tfm/public/amsfonts/symbols/msbm10.tfm" 1480098698 908 2921f8a10601f252058503cc6570e581 ""
  "/usr/share/texlive/texmf-dist/fonts/tfm/public/amsfonts/symbols/msbm7.tfm" 1480098698 940 228d6584342e91276bf566bcf9716b83 ""
  "/usr/share/texlive/texmf-dist/fonts/tfm/public/cm/cmbx10.tfm" 1480098701 1328 c834bbb027764024c09d3d2bf908b5f0 ""
  "/usr/share/texlive/texmf-dist/fonts/tfm/public/cm/cmex10.tfm" 1480098701 992 662f679a0b3d2d53c1b94050fdaa3f50 ""
  "/usr/share/texlive/texmf-dist/fonts/tfm/public/cm/cmmi10.tfm" 1480098701 1528 abec98dbc43e172678c11b3b9031252a ""
  "/usr/share/texlive/texmf-dist/fonts/tfm/public/cm/cmmi6.tfm" 1480098701 1512 f21f83efb36853c0b70002322c1ab3ad ""
  "/usr/share/texlive/texmf-dist/fonts/tfm/public/cm/cmmi8.tfm" 1480098701 1520 eccf95517727cb11801f4f1aee3a21b4 ""
  "/usr/share/texlive/texmf-dist/fonts/tfm/public/cm/cmr10.tfm" 1480098701 1296 45809c5a464d5f32c8f98ba97c1bb47f ""
  "/usr/share/texlive/texmf-dist/fonts/tfm/public/cm/cmr6.tfm" 1480098701 1300 b62933e007d01cfd073f79b963c01526 ""
  "/usr/share/texlive/texmf-dist/fonts/tfm/public/cm/cmr8.tfm" 1480098701 1292 21c1c5bfeaebccffdb478fd231a0997d ""
  "/usr/share/texlive/texmf-dist/fonts/tfm/public/cm/cmsy10.tfm" 1480098701 1124 6c73e740cf17375f03eec0ee63599741 ""
  "/usr/share/texlive/texmf-dist/fonts/tfm/public/cm/cmsy6.tfm" 1480098701 1116 933a60c408fc0a863a92debe84b2d294 ""
  "/usr/share/texlive/texmf-dist/fonts/tfm/public/cm/cmsy8.tfm" 1480098701 1120 8b7d695260f3cff42e636090a8002094 ""
  "/usr/share/texlive/texmf-dist/fonts/tfm/public/cm/cmti10.tfm" 1480098701 1480 aa8e34af0eb6a2941b776984cf1dfdc4 ""
  "/usr/share/texlive/texmf-dist/fonts/tfm/public/cm/cmtt10.tfm" 1480098701 768 1321e9409b4137d6fb428ac9dc956269 ""
  "/usr/share/texlive/texmf-dist/fonts/type1/public/amsfonts/cm/cmbx10.pfb" 1480098733 34811 78b52f49e893bcba91bd7581cdc144c0 ""
  "/usr/share/texlive/texmf-dist/fonts/type1/public/amsfonts/cm/cmmi10.pfb" 1480098733 36299 5f9df58c2139e7edcf37c8fca4bd384d ""
  "/usr/share/texlive/texmf-dist/fonts/type1/public/amsfonts/cm/cmmi8.pfb" 1480098733 35469 70d41d2b9ea31d5d813066df7c99281c ""
  "/usr/share/texlive/texmf-dist/fonts/type1/public/amsfonts/cm/cmr10.pfb" 1480098733 35752 024fb6c41858982481f6968b5fc26508 ""
  "/usr/share/texlive/texmf-dist/fonts/type1/public/amsfonts/cm/cmsy10.pfb" 1480098733 32569 5e5ddc8df908dea60932f3c484a54c0d ""
  "/usr/share/texlive/texmf-dist/fonts/type1/public/amsfonts/cm/cmti10.pfb" 1480098733 37944 359e864bd06cde3b1cf57bb20757fb06 ""
  "/usr/share/texlive/texmf-dist/fonts/type1/public/amsfonts/cm/cmtt10.pfb" 1480098733 31099 c85edf1dd5b9e826d67c9c7293b6786c ""
  "/usr/share/texlive/texmf-dist/tex/context/base/mkii/supp-pdf.mkii" 1480098806 71627 94eb9990bed73c364d7f53f960cc8c5b ""
  "/usr/share/texlive/texmf-dist/tex/generic/oberdiek/etexcmds.sty" 1480098815 7612 729a8cc22a1ee0029997c7f74717ae05 ""
  "/usr/share/texlive/texmf-dist/tex/generic/oberdiek/ifluatex.sty" 1480098815 7324 2310d1247db0114eb4726807c8837a0e ""
  "/usr/share/texlive/texmf-dist/tex/generic/oberdiek/ifpdf.sty" 1490564930 1251 d170e11a3246c3392bc7f59595af42cb ""
  "/usr/share/texlive/texmf-dist/tex/generic/oberdiek/infwarerr.sty" 1480098815 8253 473e0e41f9adadb1977e8631b8f72ea6 ""
  "/usr/share/texlive/texmf-dist/tex/generic/oberdiek/kvdefinekeys.sty" 1480098815 5152 b67a3a964ad9851e095110c854a1d461 ""
  "/usr/share/texlive/texmf-dist/tex/generic/oberdiek/kvsetkeys.sty" 1480098815 14040 ac8866aac45982ac84021584b0abb252 ""
  "/usr/share/texlive/texmf-dist/tex/generic/oberdiek/ltxcmds.sty" 1480098815 18425 5b3c0c59d76fac78978b5558e83c1f36 ""
  "/usr/share/texlive/texmf-dist/tex/generic/oberdiek/pdftexcmds.sty" 1522444781 20418 ca44694be1c8df491925faa194fe6edf ""
  "/usr/share/texlive/texmf-dist/tex/latex/a4wide/a4wide.sty" 1480098820 1635 717cb53b4323c7ff0cf7f675b11dfe05 ""
  "/usr/share/texlive/texmf-dist/tex/latex/amsfonts/amsfonts.sty" 1480098820 5949 3f3fd50a8cc94c3d4cbf4fc66cd3df1c ""
  "/usr/share/texlive/texmf-dist/tex/latex/amsfonts/amssymb.sty" 1480098820 13829 94730e64147574077f8ecfea9bb69af4 ""
  "/usr/share/texlive/texmf-dist/tex/latex/amsfonts/umsa.fd" 1480098820 961 6518c6525a34feb5e8250ffa91731cff ""
  "/usr/share/texlive/texmf-dist/tex/latex/amsfonts/umsb.fd" 1480098820 961 d02606146ba5601b5645f987c92e6193 ""
  "/usr/share/texlive/texmf-dist/tex/latex/amsmath/amsbsy.sty" 1523134290 2211 ca7ce284ab93c8eecdc6029dc5ccbd73 ""
  "/usr/share/texlive/texmf-dist/tex/latex/amsmath/amsgen.sty" 1523134290 4161 7f6eb9092061a11f87d08ed13515b48d ""
  "/usr/share/texlive/texmf-dist/tex/latex/amsmath/amsmath.sty" 1523134290 84354 7292177bb735c466b78634ee4efd537e ""
  "/usr/share/texlive/texmf-dist/tex/latex/amsmath/amsopn.sty" 1523134290 4116 32e6abd27229755a83a8b7f18e583890 ""
  "/usr/share/texlive/texmf-dist/tex/latex/amsmath/amstext.sty" 1523134290 2432 8ff93b1137020e8f21930562a874ae66 ""
  "/usr/share/texlive/texmf-dist/tex/latex/base/article.cls" 1523050425 19823 fcbc01552b07b608574cbf8e1977e0c0 ""
  "/usr/share/texlive/texmf-dist/tex/latex/base/inputenc.sty" 1523050425 5052 f2525dfd6e503dc383e90b568c6c9f02 ""
  "/usr/share/texlive/texmf-dist/tex/latex/base/omscmr.fd" 1523050425 2472 aa08940f0a4dc6c24ae9f943b04ae0b9 ""
  "/usr/share/texlive/texmf-dist/tex/latex/base/size11.clo" 1523050425 8310 c914ded44e64c3c6e0ed92e7ac6a2004 ""
  "/usr/share/texlive/texmf-dist/tex/latex/graphics-cfg/color.cfg" 1480098830 1213 620bba36b25224fa9b7e1ccb4ecb76fd ""
  "/usr/share/texlive/texmf-dist/tex/latex/graphics-cfg/graphics.cfg" 1480098830 1224 978390e9c2234eab29404bc21b268d1e ""
  "/usr/share/texlive/texmf-dist/tex/latex/graphics-def/pdftex.def" 1515537368 17334 520b9b85ad8a2a48eda3f643e27a5179 ""
  "/usr/share/texlive/texmf-dist/tex/latex/graphics/color.sty" 1523134385 7028 112f909feb676788e7ea1c5b0b76320f ""
  "/usr/share/texlive/texmf-dist/tex/latex/graphics/epsfig.sty" 1523134385 3390 371f3edde417b3763d7e25ed5bb647ec ""
  "/usr/share/texlive/texmf-dist/tex/latex/graphics/graphics.sty" 1523134385 15272 5a97061616e0c8b2aa79c6615ff769f4 ""
  "/usr/share/texlive/texmf-dist/tex/latex/graphics/graphicx.sty" 1523134385 9063 d0a305975932762117cd1f06a582f896 ""
  "/usr/share/texlive/texmf-dist/tex/latex/graphics/keyval.sty" 1523134385 2591 6404d0c7d28505fb38ce0d86c2e28ae7 ""
  "/usr/share/texlive/texmf-dist/tex/latex/graphics/trig.sty" 1523134385 3977 cb9221976ed8a183afad65b59aa8629a ""
  "/usr/share/texlive/texmf-dist/tex/latex/latexconfig/epstopdf-sys.cfg" 1480098833 678 4792914a8f45be57bb98413425e4c7af ""
  "/usr/share/texlive/texmf-dist/tex/latex/ntgclass/a4.sty" 1480098836 4634 297db5b00844da9a761d5b410c03f87c ""
  "/usr/share/texlive/texmf-dist/tex/latex/oberdiek/epstopdf-base.sty" 1480098836 12095 5337833c991d80788a43d3ce26bd1c46 ""
  "/usr/share/texlive/texmf-dist/tex/latex/oberdiek/grfext.sty" 1480098836 7075 2fe3d848bba95f139de11ded085e74aa ""
  "/usr/share/texlive/texmf-dist/tex/latex/oberdiek/kvoptions.sty" 1480098836 22417 1d9df1eb66848aa31b18a593099cf45c ""
  "/usr/share/texlive/texmf-dist/web2c/texmf.cnf" 1535076666 32752 ce45b90d2fda49befaa367e6f5986072 ""
  "/usr/share/texmf/web2c/texmf.cnf" 1535076666 32752 ce45b90d2fda49befaa367e6f5986072 ""
  "/var/lib/texmf/fonts/map/pdftex/updmap/pdftex.map" 1541847786 2581576 9f90be4a0e9e0e842ebabfee356036dc ""
  "/var/lib/texmf/web2c/pdftex/pdflatex.fmt" 1541847793 1965238 801708ba892f6b2f7f9807a80e37292c ""
  "continuas.aux" 1554905981 8 a94a2480d3289e625eea47cd1b285758 ""
  "continuas.tex" 1554905981 3458 60067ccb0ebfd0dc7108ab0e482631f2 ""
  (generated)
  "/media/pang/9115d3bb-3687-42e7-ac63-13969fb2a2ad2/pang/p/Curro/upm/optimizacion_y_estadistica/test-no-AMC/continuas/continuas.pdf"
  "/media/pang/9115d3bb-3687-42e7-ac63-13969fb2a2ad2/pang/p/Curro/upm/optimizacion_y_estadistica/test-no-AMC/continuas/continuas.log"
  "/home/pang/p/Curro/upm/optimizacion_y_estadistica/test-no-AMC/continuas.log"
  "continuas.aux"
  "/home/pang/p/Curro/upm/optimizacion_y_estadistica/test-no-AMC/continuas.pdf"
  "continuas.log"
  "continuas.pdf"
