# Fdb version 3
["pdflatex"] 1525792396 "continuasB.tex" "/home/pang/p/Curro/upm/optimizacion_y_estadistica/test-no-AMC/continuasB.pdf" "continuasB" 1525792397
  "/etc/texmf/web2c/texmf.cnf" 1513423017 475 c0e671620eb5563b2130f56340a5fde8 ""
  "/home/pang/p/Curro/upm/optimizacion_y_estadistica/test-no-AMC/continuasB.aux" 1525792397 8 a94a2480d3289e625eea47cd1b285758 ""
  "/usr/share/texlive/texmf-dist/fonts/map/fontname/texfonts.map" 1480098670 3287 e6b82fe08f5336d4d5ebc73fb1152e87 ""
  "/usr/share/texlive/texmf-dist/fonts/tfm/public/amsfonts/cmextra/cmex7.tfm" 1480098698 1004 54797486969f23fa377b128694d548df ""
  "/usr/share/texlive/texmf-dist/fonts/tfm/public/amsfonts/cmextra/cmex8.tfm" 1480098698 988 bdf658c3bfc2d96d3c8b02cfc1c94c20 ""
  "/usr/share/texlive/texmf-dist/fonts/tfm/public/amsfonts/symbols/msam10.tfm" 1480098698 916 f87d7c45f9c908e672703b83b72241a3 ""
  "/usr/share/texlive/texmf-dist/fonts/tfm/public/amsfonts/symbols/msam7.tfm" 1480098698 928 2dc8d444221b7a635bb58038579b861a ""
  "/usr/share/texlive/texmf-dist/fonts/tfm/public/amsfonts/symbols/msbm10.tfm" 1480098698 908 2921f8a10601f252058503cc6570e581 ""
  "/usr/share/texlive/texmf-dist/fonts/tfm/public/amsfonts/symbols/msbm7.tfm" 1480098698 940 228d6584342e91276bf566bcf9716b83 ""
  "/usr/share/texlive/texmf-dist/fonts/tfm/public/cm/cmbx10.tfm" 1480098701 1328 c834bbb027764024c09d3d2bf908b5f0 ""
  "/usr/share/texlive/texmf-dist/fonts/tfm/public/cm/cmex10.tfm" 1480098701 992 662f679a0b3d2d53c1b94050fdaa3f50 ""
  "/usr/share/texlive/texmf-dist/fonts/tfm/public/cm/cmmi10.tfm" 1480098701 1528 abec98dbc43e172678c11b3b9031252a ""
  "/usr/share/texlive/texmf-dist/fonts/tfm/public/cm/cmmi6.tfm" 1480098701 1512 f21f83efb36853c0b70002322c1ab3ad ""
  "/usr/share/texlive/texmf-dist/fonts/tfm/public/cm/cmmi8.tfm" 1480098701 1520 eccf95517727cb11801f4f1aee3a21b4 ""
  "/usr/share/texlive/texmf-dist/fonts/tfm/public/cm/cmr10.tfm" 1480098701 1296 45809c5a464d5f32c8f98ba97c1bb47f ""
  "/usr/share/texlive/texmf-dist/fonts/tfm/public/cm/cmr6.tfm" 1480098701 1300 b62933e007d01cfd073f79b963c01526 ""
  "/usr/share/texlive/texmf-dist/fonts/tfm/public/cm/cmr8.tfm" 1480098701 1292 21c1c5bfeaebccffdb478fd231a0997d ""
  "/usr/share/texlive/texmf-dist/fonts/tfm/public/cm/cmsy10.tfm" 1480098701 1124 6c73e740cf17375f03eec0ee63599741 ""
  "/usr/share/texlive/texmf-dist/fonts/tfm/public/cm/cmsy6.tfm" 1480098701 1116 933a60c408fc0a863a92debe84b2d294 ""
  "/usr/share/texlive/texmf-dist/fonts/tfm/public/cm/cmsy8.tfm" 1480098701 1120 8b7d695260f3cff42e636090a8002094 ""
  "/usr/share/texlive/texmf-dist/fonts/tfm/public/cm/cmti10.tfm" 1480098701 1480 aa8e34af0eb6a2941b776984cf1dfdc4 ""
  "/usr/share/texlive/texmf-dist/fonts/tfm/public/cm/cmtt10.tfm" 1480098701 768 1321e9409b4137d6fb428ac9dc956269 ""
  "/usr/share/texlive/texmf-dist/fonts/type1/public/amsfonts/cm/cmbx10.pfb" 1480098733 34811 78b52f49e893bcba91bd7581cdc144c0 ""
  "/usr/share/texlive/texmf-dist/fonts/type1/public/amsfonts/cm/cmex10.pfb" 1480098733 30251 6afa5cb1d0204815a708a080681d4674 ""
  "/usr/share/texlive/texmf-dist/fonts/type1/public/amsfonts/cm/cmmi10.pfb" 1480098733 36299 5f9df58c2139e7edcf37c8fca4bd384d ""
  "/usr/share/texlive/texmf-dist/fonts/type1/public/amsfonts/cm/cmr10.pfb" 1480098733 35752 024fb6c41858982481f6968b5fc26508 ""
  "/usr/share/texlive/texmf-dist/fonts/type1/public/amsfonts/cm/cmr8.pfb" 1480098733 32726 0a1aea6fcd6468ee2cf64d891f5c43c8 ""
  "/usr/share/texlive/texmf-dist/fonts/type1/public/amsfonts/cm/cmsy10.pfb" 1480098733 32569 5e5ddc8df908dea60932f3c484a54c0d ""
  "/usr/share/texlive/texmf-dist/fonts/type1/public/amsfonts/cm/cmti10.pfb" 1480098733 37944 359e864bd06cde3b1cf57bb20757fb06 ""
  "/usr/share/texlive/texmf-dist/fonts/type1/public/amsfonts/cm/cmtt10.pfb" 1480098733 31099 c85edf1dd5b9e826d67c9c7293b6786c ""
  "/usr/share/texlive/texmf-dist/tex/context/base/mkii/supp-pdf.mkii" 1480098806 71627 94eb9990bed73c364d7f53f960cc8c5b ""
  "/usr/share/texlive/texmf-dist/tex/generic/oberdiek/etexcmds.sty" 1480098815 7612 729a8cc22a1ee0029997c7f74717ae05 ""
  "/usr/share/texlive/texmf-dist/tex/generic/oberdiek/ifluatex.sty" 1480098815 7324 2310d1247db0114eb4726807c8837a0e ""
  "/usr/share/texlive/texmf-dist/tex/generic/oberdiek/ifpdf.sty" 1490564930 1251 d170e11a3246c3392bc7f59595af42cb ""
  "/usr/share/texlive/texmf-dist/tex/generic/oberdiek/infwarerr.sty" 1480098815 8253 473e0e41f9adadb1977e8631b8f72ea6 ""
  "/usr/share/texlive/texmf-dist/tex/generic/oberdiek/kvdefinekeys.sty" 1480098815 5152 b67a3a964ad9851e095110c854a1d461 ""
  "/usr/share/texlive/texmf-dist/tex/generic/oberdiek/kvsetkeys.sty" 1480098815 14040 ac8866aac45982ac84021584b0abb252 ""
  "/usr/share/texlive/texmf-dist/tex/generic/oberdiek/ltxcmds.sty" 1480098815 18425 5b3c0c59d76fac78978b5558e83c1f36 ""
  "/usr/share/texlive/texmf-dist/tex/generic/oberdiek/pdftexcmds.sty" 1490564930 20151 72b3c7cacb61f7dd527505c39a23f7c1 ""
  "/usr/share/texlive/texmf-dist/tex/latex/a4wide/a4wide.sty" 1480098820 1635 717cb53b4323c7ff0cf7f675b11dfe05 ""
  "/usr/share/texlive/texmf-dist/tex/latex/amsfonts/amsfonts.sty" 1480098820 5949 3f3fd50a8cc94c3d4cbf4fc66cd3df1c ""
  "/usr/share/texlive/texmf-dist/tex/latex/amsfonts/amssymb.sty" 1480098820 13829 94730e64147574077f8ecfea9bb69af4 ""
  "/usr/share/texlive/texmf-dist/tex/latex/amsfonts/umsa.fd" 1480098820 961 6518c6525a34feb5e8250ffa91731cff ""
  "/usr/share/texlive/texmf-dist/tex/latex/amsfonts/umsb.fd" 1480098820 961 d02606146ba5601b5645f987c92e6193 ""
  "/usr/share/texlive/texmf-dist/tex/latex/amsmath/amsbsy.sty" 1480098820 2210 5c54ab129b848a5071554186d0168766 ""
  "/usr/share/texlive/texmf-dist/tex/latex/amsmath/amsgen.sty" 1480098820 4160 c115536cf8d4ff25aa8c1c9bc4ecb79a ""
  "/usr/share/texlive/texmf-dist/tex/latex/amsmath/amsmath.sty" 1485129665 84329 81aa65c5042562f79cb421feff9b8bdc ""
  "/usr/share/texlive/texmf-dist/tex/latex/amsmath/amsopn.sty" 1480098820 4115 318a66090112f3aa3f415aeb6fe8540f ""
  "/usr/share/texlive/texmf-dist/tex/latex/amsmath/amstext.sty" 1480098820 2431 fe3078ec12fc30287f568596f8e0b948 ""
  "/usr/share/texlive/texmf-dist/tex/latex/base/article.cls" 1480098821 19821 310da678527a7dfe2a02c88af38079b7 ""
  "/usr/share/texlive/texmf-dist/tex/latex/base/inputenc.sty" 1480098821 4732 d63eda807ac82cca2ca8488efd31a966 ""
  "/usr/share/texlive/texmf-dist/tex/latex/base/omscmr.fd" 1480098821 2256 80ce1168fb4ce6a85583a9cf8972c013 ""
  "/usr/share/texlive/texmf-dist/tex/latex/base/omsenc.dfu" 1487721667 2004 ac51aeac484f08c01026120d62677eca ""
  "/usr/share/texlive/texmf-dist/tex/latex/base/ot1enc.dfu" 1487721667 3181 1cb3e9ad01f4a01127b2ffd821bfeec7 ""
  "/usr/share/texlive/texmf-dist/tex/latex/base/size11.clo" 1480098821 8308 f91506bb4df6d8527331f7bbeaf0e63c ""
  "/usr/share/texlive/texmf-dist/tex/latex/base/t1enc.dfu" 1487721667 11255 9d97362866549d3d3c994b5f28d1b9b5 ""
  "/usr/share/texlive/texmf-dist/tex/latex/base/utf8.def" 1487721667 7784 325a2a09984cb5c4ff230f9867145ad3 ""
  "/usr/share/texlive/texmf-dist/tex/latex/graphics-cfg/color.cfg" 1480098830 1213 620bba36b25224fa9b7e1ccb4ecb76fd ""
  "/usr/share/texlive/texmf-dist/tex/latex/graphics-cfg/graphics.cfg" 1480098830 1224 978390e9c2234eab29404bc21b268d1e ""
  "/usr/share/texlive/texmf-dist/tex/latex/graphics-def/pdftex.def" 1498427493 16511 5d26b5e9dfb345f4c794a3d58bda444e ""
  "/usr/share/texlive/texmf-dist/tex/latex/graphics/color.sty" 1480098830 7031 4ca2945c73eec4e726c0da188fbbf50f ""
  "/usr/share/texlive/texmf-dist/tex/latex/graphics/epsfig.sty" 1498427532 3393 26ce90386438197ba338db18b9ec574a ""
  "/usr/share/texlive/texmf-dist/tex/latex/graphics/graphics.sty" 1498427532 15275 7d676729b1bedd3e7f3c6717affb366c ""
  "/usr/share/texlive/texmf-dist/tex/latex/graphics/graphicx.sty" 1498427532 9066 649f2ccf62888e3d8c3e57256b70b8e1 ""
  "/usr/share/texlive/texmf-dist/tex/latex/graphics/keyval.sty" 1480098830 2594 d18d5e19aa8239cf867fa670c556d2e9 ""
  "/usr/share/texlive/texmf-dist/tex/latex/graphics/trig.sty" 1480098830 3980 0a268fbfda01e381fa95821ab13b6aee ""
  "/usr/share/texlive/texmf-dist/tex/latex/latexconfig/epstopdf-sys.cfg" 1480098833 678 4792914a8f45be57bb98413425e4c7af ""
  "/usr/share/texlive/texmf-dist/tex/latex/ntgclass/a4.sty" 1480098836 4634 297db5b00844da9a761d5b410c03f87c ""
  "/usr/share/texlive/texmf-dist/tex/latex/oberdiek/epstopdf-base.sty" 1480098836 12095 5337833c991d80788a43d3ce26bd1c46 ""
  "/usr/share/texlive/texmf-dist/tex/latex/oberdiek/grfext.sty" 1480098836 7075 2fe3d848bba95f139de11ded085e74aa ""
  "/usr/share/texlive/texmf-dist/tex/latex/oberdiek/kvoptions.sty" 1480098836 22417 1d9df1eb66848aa31b18a593099cf45c ""
  "/usr/share/texlive/texmf-dist/web2c/texmf.cnf" 1503024366 32036 8f10cb8f6ef259fb5791f09c065d3d13 ""
  "/usr/share/texmf/web2c/texmf.cnf" 1503024366 32036 8f10cb8f6ef259fb5791f09c065d3d13 ""
  "/var/lib/texmf/fonts/map/pdftex/updmap/pdftex.map" 1513423059 2072819 ddc232a8b80da3f2a1677113779c1fba ""
  "/var/lib/texmf/web2c/pdftex/pdflatex.fmt" 1514128232 872622 10e593b2b7478292b33e321f45fef1f0 ""
  "continuasB.aux" 1525792397 8 a94a2480d3289e625eea47cd1b285758 ""
  "continuasB.tex" 1525792396 4007 ededb57827dd2505e3eff5d2a34c2cc0 ""
  (generated)
  "continuasB.pdf"
  "continuasB.aux"
  "/home/pang/p/Curro/upm/optimizacion_y_estadistica/test-no-AMC/continuasB.pdf"
  "/home/pang/p/Curro/upm/optimizacion_y_estadistica/test-no-AMC/continuasB.log"
  "continuasB.log"
